YAL021C	YMR303C	+
YBL005W	YBL005W	+
YBL005W	YBR008C	+
YBL005W	YDR011W	+
YBL005W	YDR406W	+
YBL005W	YGR281W	+
YBL005W	YJL219W	+
YBL005W	YOL156W	+
YBL005W	YOR153W	+
YBL005W	YOR328W	+
YBL008W	YDR225W	-
YBL021C	YBL030C	+
YBL021C	YDL205C	+
YBL021C	YDL230W	+
YBL021C	YDR148C	+
YBL021C	YDR232W	+
YBL021C	YGL187C	+
YBL021C	YGR059W	+
YBL021C	YHR008C	+
YBL021C	YHR051W	+
YBL021C	YIL125W	+
YBL021C	YJL166W	+
YBL021C	YJR048W	+
YBL021C	YKL141W	+
YBL021C	YKL148C	+
YBL021C	YML091C	+
YBL021C	YNR001C	+
YBL021C	YOR065W	+
YBL021C	YOR375C	+
YBL021C	YPR191W	+
YBL093C	YBR020W	+
YBL103C	YCR005C	+
YBL103C	YLR304C	+
YBL103C	YNL037C	+
YBL103C	YNR001C	+
YBL103C	YOR136W	+
YBR049C	YDR146C	+
YBR049C	YNL216W	+
YBR049C	YOL004W	+
YBR049C	YAL038W	+
YBR049C	YBR019C	+
YBR049C	YBR020W	+
YBR049C	YCR012W	+
YBR049C	YDL140C	+
YBR049C	YDL164C	+
YBR049C	YDR050C	+
YBR049C	YER086W	+
YBR049C	YFL039C	+
YBR049C	YGL026C	+
YBR049C	YKL182W	+
YBR049C	YMR186W	+
YBR049C	YOL006C	+
YBR049C	YPL231W	+
YBR049C	YGR254W	-
YBR083W	YLR403W	+
YBR083W	YOR077W	+
YBR112C	YCR005C	+
YBR112C	YER065C	+
YBR112C	YJR094C	-
YBR112C	YLR256W	-
YBR112C	STA1	-
YBR112C	YAL063C	-
YBR112C	YAR050W	-
YBR112C	YDR172W	-
YBR112C	YHR051W	-
YBR112C	YHR211W	-
YBR112C	YIL162W	-
YBR112C	YJR048W	-
YBR112C	YML058WA	-
YBR279W	YPL256C	+
YBR289W	STA2	+
YBR289W	YAR071W	+
YBR289W	YBR093C	+
YBR289W	YIL015W	+
YBR289W	YIL162W	+
YBR289W	YPL187W	+
YBR297W	YBR298C	+
YBR297W	YBR299W	+
YCL066W	YGL089C	+
YCL066W	YIL099W	+
YCL066W	YJR004C	+
YCL066W	YKL178C	+
YCL066W	YLR113W	+
YCL066W	YPL187W	+
YCL066W	STA1	-
YCL066W	STA2	-
YCL066W	STA3	-
YCL067C	YCL066W	-
YCL067C	YGR044C	-
YCL067C	YHR084W	-
YCL067C	YDR007W	-
YCL067C	YGL089C	-
YCL067C	YPL187W	-
YCL067C	YDR103W	-
YCL067C	YFL026W	-
YCL067C	YIL015W	-
YCL067C	YKL209C	-
YCL067C	YLR452C	-
YCL067C	YOR212W	-
YCL067C	YPL187W	+
YCR065W	YDR113C	-
YCR065W	YDR356W	-
YCR065W	YGR098C	-
YCR065W	YMR198W	-
YCR084C	YCL066W	-
YCR084C	YGR044C	-
YCR084C	YHR084W	-
YCR084C	YJR094C	-
YCR084C	YPR065W	-
YCR084C	YBR020W	-
YCR084C	YEL039C	-
YCR084C	YGL089C	-
YCR084C	YIL015W	-
YCR084C	YJR047C	-
YCR084C	YJR048W	-
YCR084C	YPL187W	-
YCR084C	YER070W	-
YCR084C	YFL026W	-
YCR084C	YIL066C	-
YCR084C	YOR212W	-
YCR084C	STA1	-
YCR084C	YDR103W	-
YCR084C	YDR172W	-
YCR084C	YDR402C	-
YCR084C	YDR403W	-
YCR084C	YIL162W	-
YCR084C	YKL209C	-
YCR084C	YLR452C	-
YCR084C	YML058WA	-
YCR093W	YOR202W	-
YCR097W	YCL066W	-
YCR097W	YGR044C	-
YCR097W	STA1	-
YCR097W	STA2	-
YCR097W	STA3	-
YCR097W	YDR103W	-
YDL056W	YDL102W	+
YDL056W	YDL164C	+
YDL056W	YGR109C	+
YDL056W	YJL194W	+
YDL056W	YMR199W	+
YDL056W	YNL102W	+
YDL056W	YOR074C	+
YDL056W	YPL256C	+
YDL056W	YPR120C	+
YDL056W	YDL102W	-
YDL056W	YDL164C	-
YDL056W	YGR109C	-
YDL056W	YJL194W	-
YDL056W	YMR199W	-
YDL056W	YNL102W	-
YDL056W	YOR074C	-
YDL056W	YPL256C	-
YDL056W	YPR120C	-
YDL106C	YAR015W	+
YDL106C	YBR093C	+
YDL106C	YCL030C	+
YDL106C	YDR354W	+
YDL106C	YDR408C	+
YDL106C	YJR048W	+
YDL106C	YOR128C	+
YDL106C	YBR248C	+
YDL106C	YEL021W	+
YDL106C	YGL234W	+
YDL106C	YGR061C	+
YDL106C	YGR204W	+
YDL106C	YKL216W	+
YDL106C	YLR359W	+
YDL106C	YMR120C	+
YDL106C	YMR300C	+
YDL106C	YNL220W	+
YDL170W	YDL210W	+
YDL170W	YGR019W	+
YDL170W	YBR006W	+
YDR034C	YBR115C	+
YDR034C	YIR034C	+
YDR034C	YNR050C	+
YDR043C	STA1	-
YDR123C	YBR093C	+
YDR123C	YDR497C	+
YDR123C	YER026C	+
YDR123C	YGL077C	+
YDR123C	YGR157W	+
YDR123C	YJL153C	+
YDR123C	YJR073C	+
YDR123C	YKL182W	+
YDR123C	YLR133W	+
YDR123C	YNR016C	+
YDR123C	YPL231W	+
YDR123C	YBR093C	-
YDR123C	YDR497C	-
YDR123C	YER026C	-
YDR123C	YGL077C	-
YDR123C	YGR157W	-
YDR123C	YJL153C	-
YDR123C	YJR073C	-
YDR123C	YKL182W	-
YDR123C	YLR133W	-
YDR123C	YNR016C	-
YDR123C	YPL231W	-
YDR146C	YGR044C	+
YDR146C	YKL185W	+
YDR146C	YDL127W	+
YDR146C	YDL179W	+
YDR146C	YJL194W	+
YDR146C	YLR079W	+
YDR146C	YNL327W	+
YDR176W	YBL103C	+
YDR176W	YIL162W	+
YDR176W	YJL153C	+
YDR207C	YDR123C	+
YDR207C	YGR044C	+
YDR207C	YER026C	+
YDR207C	YGR157W	+
YDR207C	YGR258C	+
YDR207C	YHR014W	+
YDR207C	YJR052W	+
YDR207C	YJR073C	+
YDR207C	YLR438W	+
YDR207C	YOR386W	+
YDR207C	YPL153C	+
YDR207C	YGL073W	-
YDR207C	YJR094C	-
YDR207C	YGR044C	-
YDR207C	YAL054C	-
YDR207C	YDR403W	-
YDR207C	YDR522C	-
YDR207C	YER044CA	-
YDR207C	YHL022C	-
YDR207C	YHR014W	-
YDR207C	YHR152W	-
YDR207C	YIL160C	-
YDR207C	YJL106W	-
YDR207C	YJL153C	-
YDR207C	YPL111W	-
YDR207C	YBR020W	-
YDR207C	YER179W	-
YDR207C	YIL015W	-
YDR207C	YIL072W	-
YDR207C	YMR108W	-
YDR207C	YPL240C	-
YDR207C	YDR285W	-
YDR207C	YLR263W	-
YDR207C	YLR329W	-
YDR207C	YMR133W	-
YDR207C	YNL210W	-
YDR207C	YOL006C	-
YDR207C	YOR351C	-
YDR207C	YGL213C	-
YDR216W	YDR256C	+
YDR216W	YHL032C	+
YDR216W	YIL160C	+
YDR216W	YKL197C	+
YDR216W	YKR009C	+
YDR216W	YMR303C	+
YDR216W	YOL086C	+
YDR392W	YCL030C	+
YDR421W	YHR137W	+
YDR421W	YDR380W	+
YDR423C	YAL005C	+
YDR423C	YBR126C	+
YDR423C	YDR074W	+
YDR423C	YFL014W	+
YDR423C	YGR088W	+
YDR423C	YGR209C	+
YDR423C	YJL101C	+
YDR423C	YLR043C	+
YDR423C	YML100W	+
YDR423C	YMR261C	+
YDR423C	YOL052CA	+
YDR423C	YOR202W	+
YDR423C	YOR208W	+
YDR448W	YBL103C	+
YDR448W	YIL162W	+
YDR448W	YJL153C	+
YEL009C	YNL103W	+
YEL009C	YDR035W	+
YEL009C	YDR354W	+
YEL009C	YER055C	+
YEL009C	YGL026C	+
YEL009C	YHR018C	+
YEL009C	YJL088W	+
YEL009C	YMR300C	+
YEL009C	YOR202W	+
YEL009C	YPR060C	+
YEL009C	YBR248C	+
YEL009C	YCL030C	+
YEL009C	YER086W	+
YEL009C	YMR108W	+
YEL009C	YOL058W	+
YEL009C	YOL140W	+
YEL009C	YPR167C	+
YER040W	YJL110C	+
YER040W	YKR034W	+
YER040W	YBR208C	+
YER040W	YEL063C	+
YER040W	YHL016C	+
YER040W	YIR028W	+
YER040W	YIR029W	+
YER040W	YIR031C	+
YER040W	YIR032C	+
YER040W	YJR152W	+
YER040W	YKR039W	+
YER040W	YDL171C	+
YER040W	YDL215C	+
YER040W	YFL021W	+
YER040W	YGR019W	+
YER040W	YHR037W	+
YER040W	YLR142W	+
YER040W	YOR348C	+
YER040W	YOR375C	+
YER040W	YPR035W	+
YER108C	STA2	+
YER108C	YAR050W	+
YER108C	YIR019C	+
YER111C	YLR286C	+
YER111C	YMR199W	+
YER111C	YNL289W	+
YER111C	YPL256C	+
YER161C	YJL153C	-
YER169W	YOR386W	-
YFL031W	YJR094C	+
YFL031W	YCL043C	+
YFL031W	YDR518W	+
YFL031W	YDR519W	+
YFL031W	YJL034W	+
YFR034C	YBR093C	+
YFR034C	YDR481C	+
YFR034C	YGR233C	+
YFR034C	YML123C	+
YFR034C	YPL031C	+
YGL013C	YBL005W	+
YGL013C	YBR008C	+
YGL013C	YDR011W	+
YGL013C	YDR406W	+
YGL013C	YGR281W	+
YGL013C	YIL013C	+
YGL013C	YJL219W	+
YGL013C	YKL209C	+
YGL013C	YMR307W	+
YGL013C	YOL156W	+
YGL013C	YOR153W	+
YGL013C	YOR328W	+
YGL025C	YBR020W	+
YGL025C	YBR093C	+
YGL025C	YFL039C	+
YGL025C	YBR072W	-
YGL035C	YDR146C	-
YGL035C	YGL035C	-
YGL035C	YKL109W	-
YGL035C	YMR280C	-
YGL035C	YPL248C	-
YGL035C	MAL61	-
YGL035C	YBR019C	-
YGL035C	YBR020W	-
YGL035C	YBR126C	-
YGL035C	YDR009W	-
YGL035C	YFR053C	-
YGL035C	YIL162W	-
YGL035C	YLR044C	-
YGL035C	YLR377C	-
YGL035C	YBR050C	-
YGL035C	YDR040C	-
YGL035C	YHR092C	-
YGL035C	YKR075C	-
YGL035C	YLL043W	-
YGL035C	YMR011W	-
YGL035C	YBR101C	-
YGL035C	YDR345C	-
YGL035C	YEL070W	-
YGL035C	YFL054C	-
YGL035C	YHR043C	-
YGL035C	YHR094C	-
YGL035C	YLR042C	-
YGL035C	YDR516C	-
YGL043W	YLR420W	-
YGL073W	YAL005C	+
YGL073W	YBL075C	+
YGL073W	YBR072W	+
YGL073W	YER103W	+
YGL073W	YFL014W	+
YGL073W	YHR053C	+
YGL073W	YHR055C	+
YGL073W	YJL034W	+
YGL073W	YLL039C	+
YGL073W	YNL007C	+
YGL073W	YPL106C	+
YGL073W	YPL240C	+
YGL166W	YHR053C	+
YGL166W	YHR055C	+
YGL166W	YJR104C	+
YGL166W	YOR031W	+
YGL207W	YER111C	+
YGL207W	YGL207W	+
YGL207W	YLR182W	+
YGL207W	YAL040C	+
YGL207W	YCL018W	+
YGL207W	YDR143C	+
YGL207W	YDR224C	+
YGL207W	YDR225W	+
YGL207W	YFL039C	+
YGL207W	YMR199W	+
YGL207W	YPL256C	+
YGL209W	YDR146C	-
YGL209W	YGL035C	-
YGL209W	YKL109W	-
YGL209W	YMR280C	-
YGL209W	YPL248C	-
YGL209W	YBR019C	-
YGL209W	YBR020W	-
YGL209W	YBR126C	-
YGL209W	YDR009W	-
YGL209W	YIL162W	-
YGL209W	YLR044C	-
YGL209W	YLR377C	-
YGL209W	YBR050C	-
YGL209W	YDR040C	-
YGL209W	YHR092C	-
YGL209W	YKR075C	-
YGL209W	YLL043W	-
YGL209W	YMR011W	-
YGL209W	YBR101C	-
YGL209W	YDR345C	-
YGL209W	YEL070W	-
YGL209W	YFL054C	-
YGL209W	YHR043C	-
YGL209W	YHR094C	-
YGL209W	YLR042C	-
YGL209W	YDR516C	-
YGL237C	YBL030C	+
YGL237C	YDL205C	+
YGL237C	YDL230W	+
YGL237C	YDR148C	+
YGL237C	YDR232W	+
YGL237C	YFL018C	+
YGL237C	YGL187C	+
YGL237C	YGR059W	+
YGL237C	YHR008C	+
YGL237C	YHR051W	+
YGL237C	YIL125W	+
YGL237C	YJL166W	+
YGL237C	YJR048W	+
YGL237C	YKL141W	+
YGL237C	YKL148C	+
YGL237C	YML091C	+
YGL237C	YNR001C	+
YGL237C	YOR065W	+
YGL237C	YOR375C	+
YGL237C	YPR191W	+
YGL254W	YPL092W	+
YGR044C	YJR094C	-
YGR044C	YPL256C	+
YGR288W	YGR292W	+
YGR288W	YGR289C	+
YHL025W	STA2	+
YHL025W	YAR071W	+
YHL025W	YBR093C	+
YHL025W	YIL015W	+
YHL025W	YIL162W	+
YHL027W	YJR094C	+
YHL027W	YDR402C	+
YHL027W	YDR403W	+
YHL027W	YIL072W	+
YHL027W	YJL106W	+
YHR084W	YBR083W	+
YHR084W	YCL027W	+
YHR084W	YCR018C	+
YHR084W	YDR461W	+
YHR084W	YFL026W	+
YHR084W	YGL089C	+
YHR084W	YIL015W	+
YHR084W	YIR019C	+
YHR084W	YJL157C	+
YHR084W	YKL178C	+
YHR084W	YKL209C	+
YHR084W	YMR199W	+
YHR084W	YNL145W	+
YHR084W	YOR077W	+
YHR084W	YPL187W	+
YHR119W	YAL021C	-
YHR119W	YPL016W	-
YHR119W	YAL020C	-
YHR119W	YAL029C	-
YHR119W	YAL030W	-
YHR119W	YBR061C	-
YHR119W	YDR044W	-
YHR119W	YDR463W	-
YHR119W	YGR094W	-
YHR119W	YHR043C	-
YHR119W	YHR163W	-
YHR119W	YHR164C	-
YHR119W	YJL071W	-
YHR119W	YJL127C	-
YHR119W	YJL164C	-
YHR119W	YJL165C	-
YHR119W	YJL221C	-
YHR119W	YKL019W	-
YHR119W	YML075C	-
YHR119W	YMR290C	-
YHR119W	YNL289W	-
YHR119W	YNL290W	-
YIL101C	YMR199W	-
YIR017C	YFR030W	+
YIR017C	YJR010W	+
YIR017C	YKL001C	+
YIR017C	YPR167C	+
YIR023W	YBR006W	+
YIR023W	YBR208C	+
YIR023W	YCL025C	+
YIR023W	YDL210W	+
YIR023W	YGR019W	+
YIR023W	YHL016C	+
YIR023W	YIR027C	+
YIR023W	YIR028W	+
YIR023W	YIR029W	+
YIR023W	YIR031C	+
YJL056C	YJL056C	+
YJL056C	YGL255W	+
YJL056C	YLR130C	+
YJL110C	YJL110C	-
YJL110C	YKR034W	-
YJL110C	YDL210W	-
YJL110C	YKR039W	-
YJL176C	YBR019C	+
YJL176C	YBR020W	+
YJL176C	YIL162W	+
YJL176C	YJL153C	+
YJL176C	YMR303C	+
YJL176C	YOL086C	+
YJR060W	YIR017C	+
YJR060W	YNL103W	+
YJR060W	YDR502C	+
YJR060W	YJR010W	+
YJR060W	YLR303W	+
YJR060W	YNL277W	+
YJR060W	YPR167C	+
YJR094C	YJR094C	+
YJR094C	YDR522C	+
YJR094C	YDR523C	+
YJR094C	YHL022C	+
YJR094C	YHR014W	+
YJR094C	YIL072W	+
YJR094C	YJL106W	+
YJR094C	YMR133W	+
YJR094C	YNL210W	+
YJR094C	YOR159C	+
YKL015W	YHR037W	+
YKL015W	YLR142W	+
YKL032C	YIL111W	-
YKL038W	YGL062W	+
YKL038W	YDR345C	-
YKL038W	YHR092C	-
YKL038W	YMR011W	-
YKL062W	YAL062W	+
YKL062W	YBL075C	+
YKL062W	YBR117C	+
YKL062W	YBR126C	+
YKL062W	YCL040W	+
YKL062W	YDR074W	+
YKL062W	YER062C	+
YKL062W	YER103W	+
YKL062W	YFL014W	+
YKL062W	YFR053C	+
YKL062W	YGR088W	+
YKL062W	YHR008C	+
YKL062W	YIL066C	+
YKL062W	YLL026W	+
YKL062W	YMR105C	+
YKL062W	YMR169C	+
YKL062W	YMR170C	+
YKL062W	YOL052CA	+
YKL109W	YBL030C	+
YKL109W	YDL205C	+
YKL109W	YDL230W	+
YKL109W	YDR148C	+
YKL109W	YDR232W	+
YKL109W	YFL018C	+
YKL109W	YGL187C	+
YKL109W	YGR059W	+
YKL109W	YHR008C	+
YKL109W	YHR051W	+
YKL109W	YIL125W	+
YKL109W	YJL166W	+
YKL109W	YJR048W	+
YKL109W	YKL141W	+
YKL109W	YKL148C	+
YKL109W	YML091C	+
YKL109W	YNR001C	+
YKL109W	YOR065W	+
YKL109W	YOR375C	+
YKL109W	YPR191W	+
YKR034W	YKR034W	-
YKR034W	YJL110C	-
YKR034W	YBR006W	-
YKR034W	YBR208C	-
YKR034W	YDL210W	-
YKR034W	YEL063C	-
YKR034W	YGR019W	-
YKR034W	YHL016C	-
YKR034W	YHR037W	-
YKR034W	YIR028W	-
YKR034W	YIR029W	-
YKR034W	YIR031C	-
YKR034W	YIR032C	-
YKR034W	YKR039W	-
YKR034W	YLR142W	-
YKR034W	YOR348C	-
YKR034W	YOR375C	-
YKR099W	YAR015W	+
YKR099W	YBR248C	+
YKR099W	YCL030C	+
YKR099W	YDR408C	+
YKR099W	YER055C	+
YKR099W	YGL234W	+
YKR099W	YGR061C	+
YKR099W	YGR204W	+
YKR099W	YLR359W	+
YKR099W	YMR120C	+
YKR099W	YMR300C	+
YKR099W	YNL220W	+
YKR099W	YOR128C	+
YKR206W	YAL005C	+
YKR206W	YDL182W	+
YKR206W	YDR353W	+
YKR206W	YDR453C	+
YKR206W	YGR088W	+
YKR206W	YGR209C	+
YKR206W	YHR008C	+
YKR206W	YJR104C	+
YKR206W	YKR066C	+
YKR206W	YLR043C	+
YKR206W	YLR354C	+
YKR206W	YML028W	+
YKR206W	YPL240C	+
YKR206W	YAL012W	-
YKR206W	YOL151W	-
YLR014C	YEL021W	+
YLR014C	YKL216W	+
YLR014C	YLR420W	+
YLR098C	YCL064C	+
YLR131C	YGR044C	+
YLR131C	YKL185W	+
YLR131C	YDL127W	+
YLR131C	YDL179W	+
YLR131C	YJL194W	+
YLR131C	YLR079W	+
YLR131C	YNL327W	+
YLR131C	YHR053C	+
YLR131C	YHR055C	+
YLR131C	YLR286C	+
YLR176C	YLR176C	-
YLR176C	YML058WA	-
YLR182W	YDL127W	+
YLR182W	YDL164C	+
YLR182W	YER070W	+
YLR182W	YGR109C	+
YLR182W	YJR057W	+
YLR182W	YKL045W	+
YLR182W	YLR286C	+
YLR182W	YMR199W	+
YLR182W	YNL102W	+
YLR182W	YNL289W	+
YLR182W	YOR074C	+
YLR182W	YPL256C	+
YLR182W	YPR120C	+
YLR256W	YPR065W	+
YLR256W	YDR044W	+
YLR256W	YEL039C	+
YLR256W	YGR088W	+
YLR256W	YHR008C	+
YLR256W	YJR048W	+
YLR256W	YML054C	+
YLR256W	YML075C	+
YLR256W	YOR065W	+
YLR256W	YHR007C	-
YLR451W	YCL018W	+
YLR451W	YER086W	+
YLR451W	YGL009C	+
YLR451W	YNL104C	+
YLR451W	YOR375C	+
YLR451W	YCL018W	-
YLR451W	YDR046C	-
YLR451W	YER086W	-
YLR451W	YGL009C	-
YLR451W	YNL104C	-
YLR451W	YOR375C	-
YML007W	YAL005C	+
YML007W	YAL012W	+
YML007W	YDR074W	+
YML007W	YDR135C	+
YML007W	YDR453C	+
YML007W	YFL014W	+
YML007W	YGR088W	+
YML007W	YGR209C	+
YML007W	YHR008C	+
YML007W	YJL101C	+
YML007W	YJR104C	+
YML007W	YKR066C	+
YML007W	YLR043C	+
YML007W	YLR109W	+
YML007W	YLR354C	+
YML007W	YML028W	+
YML007W	YNL241C	+
YML007W	YOL052CA	+
YML007W	YOL151W	+
YML007W	YOR202W	+
YML007W	YOR208W	+
YML007W	YPL091W	+
YML010W	YBL008W	-
YML099C	YPL111W	+
YML099C	YER069W	-
YML099C	YJL088W	-
YML099C	YLR438W	-
YML099C	YOL058W	-
YML099C	YOL140W	-
YMR021C	YDR256C	+
YMR021C	YLR214W	+
YMR021C	YLR411W	+
YMR021C	YPR124W	+
YMR021C	YGR088W	+
YMR037C	YAL062W	+
YMR037C	YBL075C	+
YMR037C	YBR117C	+
YMR037C	YBR126C	+
YMR037C	YCL040W	+
YMR037C	YDR074W	+
YMR037C	YER062C	+
YMR037C	YER103W	+
YMR037C	YFL014W	+
YMR037C	YFR053C	+
YMR037C	YGR088W	+
YMR037C	YHR008C	+
YMR037C	YLL026W	+
YMR037C	YIL066C	+
YMR037C	YLL039C	+
YMR037C	YMR105C	+
YMR037C	YMR169C	+
YMR037C	YMR170C	+
YMR037C	YOL052CA	+
YMR042W	YPL111W	+
YMR042W	YER069W	-
YMR042W	YJL088W	-
YMR042W	YLR438W	-
YMR042W	YOL058W	-
YMR042W	YOL140W	-
YMR043W	YDR146C	+
YMR043W	YER111C	+
YMR043W	YLR131C	+
YMR043W	YAL040C	+
YMR043W	YBR160W	+
YMR043W	YBR202W	+
YMR043W	YDR403W	+
YMR043W	YDR461W	+
YMR043W	YER069W	+
YMR043W	YFL026W	+
YMR043W	YGL008C	+
YMR043W	YGL089C	+
YMR043W	YGR108W	+
YMR043W	YIL015W	+
YMR043W	YJL157C	+
YMR043W	YJL159W	+
YMR043W	YJL194W	+
YMR043W	YKL178C	+
YMR043W	YKL209C	+
YMR043W	YKR066C	+
YMR043W	YKR097W	+
YMR043W	YLR274W	+
YMR043W	YNL145W	+
YMR043W	YNL277W	+
YMR043W	YPL111W	+
YMR043W	YPL187W	+
YMR043W	YPR113W	+
YMR043W	YPR119W	+
YMR043W	YPR200C	+
YMR070W	YCL018W	+
YMR070W	YIL162W	+
YMR070W	YJR048W	+
YMR070W	YCL027W	-
YMR070W	YLR452C	-
YMR070W	YNR044W	-
YMR070W	YPR141C	-
YMR280C	YKR097W	+
YMR280C	YLR377C	+
YNL027W	YNL027W	+
YNL027W	YDR040C	+
YNL103W	YIR017C	+
YNL103W	YER091C	+
YNL103W	YJR010W	+
YNL103W	YKL001C	+
YNL103W	YLR303W	+
YNL103W	YNL277W	+
YNL103W	YPR167C	+
YNL216W	YCL067C	+
YNL216W	YCL066W	+
YNL216W	YAL038W	+
YNL216W	YCL030C	+
YNL216W	YCR012W	+
YNL216W	YGL008C	+
YNL216W	YGR254W	+
YNL216W	YHR174W	+
YNL216W	YOL086C	+
YNL314W	YBR208C	+
YNL314W	YHL016C	+
YNL314W	YIR027C	+
YNL314W	YIR028W	+
YNL314W	YIR029W	+
YNL314W	YIR031C	+
YNR052C	YCR012W	+
YOL004W	YGR044C	+
YOL004W	YPL016W	+
YOL004W	STA2	+
YOL004W	YBR093C	+
YOL004W	YHL022C	+
YOL004W	YIL015W	+
YOL004W	YKL209C	+
YOL004W	YMR303C	+
YOL004W	YDR207C	-
YOL004W	YCL027W	-
YOL004W	YFL026W	-
YOL004W	YHR014W	-
YOL004W	YIL072W	-
YOL004W	YJL106W	-
YOL004W	YJL153C	-
YOL004W	YKL178C	-
YOL004W	YKL209C	-
YOL051W	YBR018C	+
YOL051W	YBR019C	+
YOL051W	YBR020W	+
YOL051W	YDL140C	+
YOL051W	YCL066W	-
YOL067C	YCR005C	+
YOL067C	YEL071W	+
YOL067C	YLR304C	+
YOL067C	YNL037C	+
YOL067C	YNR001C	+
YOL067C	YOR136W	+
YOL108C	YBR093C	+
YOL108C	YDR497C	+
YOL108C	YER026C	+
YOL108C	YGL077C	+
YOL108C	YGR157W	+
YOL108C	YJL153C	+
YOL108C	YJR073C	+
YOL108C	YKL182W	+
YOL108C	YLR133W	+
YOL108C	YNR016C	+
YOL108C	YPL231W	+
YOL116W	STA1	+
YOL116W	STA2	+
YOL116W	STA3	+
YOL116W	YFL014W	+
YOL116W	YIR019C	+
YOR140W	YIL162W	-
YOR230W	YJL106W	-
YOR290C	STA2	+
YOR290C	YAR071W	+
YOR290C	YBR019C	+
YOR290C	YBR020W	+
YOR290C	YBR093C	+
YOR290C	YER026C	+
YOR290C	YGR157W	+
YOR290C	YIL162W	+
YOR290C	YJL153C	+
YOR290C	YJR073C	+
YOR290C	YLR133W	+
YOR290C	YMR303C	+
YOR290C	YOL086C	+
YOR344C	YHR174W	+
YOR344C	YOL086C	+
YOR358W	YHR008C	+
YOR363C	YBR159W	+
YOR363C	YDL078C	+
YOR363C	YDR244W	+
YOR363C	YDR256C	+
YOR363C	YER015W	+
YOR363C	YGL205W	+
YOR363C	YIL160C	+
YOR363C	YJL218W	+
YOR363C	YJR019C	+
YOR363C	YKL188C	+
YOR363C	YKR009C	+
YOR363C	YLR284C	+
YOR363C	YML042W	+
YOR363C	YNL009W	+
YOR363C	YNL202W	+
YOR363C	YNL329C	+
YOR363C	YNR001C	+
YOR363C	YOL002C	+
YOR363C	YOL147C	+
YOR363C	YOR100C	+
YOR363C	YOR180C	+
YOR363C	YPL095C	+
YPL016W	STA1	+
YPL016W	STA2	+
YPL016W	YBR019C	+
YPL016W	YBR020W	+
YPL016W	YIL162W	+
YPL016W	YJL153C	+
YPL016W	YMR303C	+
YPL016W	YOL086C	+
YPL075W	YAL038W	+
YPL075W	YBR118W	+
YPL075W	YCL030C	+
YPL075W	YCL050C	+
YPL075W	YCR012W	+
YPL075W	YCR031C	+
YPL075W	YDR050C	+
YPL075W	YGR254W	+
YPL075W	YHR174W	+
YPL075W	YJR048W	+
YPL075W	YKL152C	+
YPL075W	YLR044C	+
YPL075W	YOL086C	+
YPL075W	YPR080W	+
YPL082C	YCL030C	+
YPL248C	MEL1	+
YPL248C	YBR018C	+
YPL248C	YBR019C	+
YPL248C	YBR020W	+
YPL248C	YNR081W	+
YPL248C	YML051W	+
YPL248C	YMR105C	+
YPL248C	YOR120W	+
YPR065W	YPR065W	-
YPR065W	YBL045C	-
YPR065W	YBR085W	-
YPR065W	YDR044W	-
YPR065W	YDR155C	-
YPR065W	YEL039C	-
YPR065W	YGL055W	-
YPR065W	YGL162W	-
YPR065W	YHR007C	-
YPR065W	YHR042W	-
YPR065W	YJR047C	-
YPR065W	YLR450W	-
